<svg width="88" height="88" viewBox="0 0 88 88" fill="none" xmlns="http://www.w3.org/2000/svg">
<rect x="18" y="17" width="65" height="66" rx="1" fill="#57E9AC"/>
<path d="M32 15.0288C32 15.0288 32.6429 31.5288 31.5 35.5288C30.3571 39.5288 29.0135 42.0913 25.5 44.5288C21.6306 47.2132 16.2973 48.0288 14.4595 48.0288L14 15.5444L32 15.0288Z" fill="white"/>
<path d="M19.9416 40.8538C20.2391 40.5028 20.3656 40.0419 20.2909 39.5872L19.58 35.2994C21.0175 34.14 21.875 32.3763 21.875 30.4688C21.875 27.0234 19.0719 24.2188 15.625 24.2188C12.1781 24.2188 9.375 27.0234 9.375 30.4688C9.375 32.3763 10.2325 34.14 11.67 35.2997L10.9588 39.5875C10.8841 40.0422 11.0106 40.5031 11.3081 40.8541C11.6056 41.205 12.0406 41.4062 12.5 41.4062H18.75C19.2094 41.4062 19.6441 41.2047 19.9416 40.8538ZM17.1403 33.1819C16.5481 33.4963 16.2231 34.1553 16.3331 34.8175L16.9069 38.2812H14.3431L14.9169 34.8175C15.0269 34.1553 14.7019 33.4959 14.1097 33.1819C13.1012 32.6447 12.5 31.6316 12.5 30.4688C12.5 28.7444 13.9022 27.3438 15.625 27.3438C17.3478 27.3438 18.75 28.7444 18.75 30.4688C18.75 31.6316 18.1488 32.6447 17.1403 33.1819Z" fill="#002653"/>
<path d="M85.9375 12.5H28.125V11.6241C28.125 5.21531 22.9109 0 16.5009 0H14.7491C8.33906 0 3.125 5.21531 3.125 11.6241V18.75H1.5625C0.69875 18.75 0 19.4487 0 20.3125V31.25C0 39.33 6.18906 45.92 14.0625 46.7172V85.9375C14.0625 86.8012 14.7612 87.5 15.625 87.5H85.9375C86.8012 87.5 87.5 86.8012 87.5 85.9375V14.0625C87.5 13.1987 86.8012 12.5 85.9375 12.5ZM84.375 34.375H65.625V15.625H84.375V34.375ZM62.5 15.625V35.9375C62.5 36.8013 63.1987 37.5 64.0625 37.5H84.375V62.5H64.0625C63.1987 62.5 62.5 63.1987 62.5 64.0625V84.375H39.0625V64.0625C39.0625 63.1987 38.3638 62.5 37.5 62.5H17.1875V46.7172C25.0609 45.92 31.25 39.33 31.25 31.25V20.3125C31.25 19.4487 30.5513 18.75 29.6875 18.75H28.125V15.625H62.5ZM6.25 11.6241C6.25 6.93656 10.0631 3.125 14.7491 3.125H16.5006C21.1869 3.125 25 6.93656 25 11.6241V18.75H22.5937V10.8428C22.5937 7.44937 19.4672 4.6875 15.625 4.6875C11.7828 4.6875 8.65625 7.44937 8.65625 10.8428V18.75H6.25V11.6241ZM19.4687 18.75H11.7812V10.8428C11.7812 9.17062 13.5056 7.8125 15.625 7.8125C17.7444 7.8125 19.4687 9.17062 19.4687 10.8428V18.75ZM3.125 31.25V21.875H11.7812H19.4687H28.125V31.25C28.125 38.1441 22.5175 43.75 15.625 43.75C8.7325 43.75 3.125 38.1441 3.125 31.25ZM17.1875 65.625H35.9375V84.375H17.1875V65.625ZM65.625 84.375V65.625H84.375V84.375H65.625Z" fill="#002653"/>
<path d="M70.3125 31.25H79.6875C80.5513 31.25 81.25 30.5513 81.25 29.6875V20.3125C81.25 19.4488 80.5513 18.75 79.6875 18.75H70.3125C69.4488 18.75 68.75 19.4488 68.75 20.3125V29.6875C68.75 30.5513 69.4488 31.25 70.3125 31.25ZM71.875 21.875H78.125V28.125H71.875V21.875Z" fill="#002653"/>
<path d="M79.6875 68.75H70.3125C69.4488 68.75 68.75 69.4488 68.75 70.3125V79.6875C68.75 80.5513 69.4488 81.25 70.3125 81.25H79.6875C80.5513 81.25 81.25 80.5513 81.25 79.6875V70.3125C81.25 69.4488 80.5513 68.75 79.6875 68.75ZM78.125 78.125H71.875V71.875H78.125V78.125Z" fill="#002653"/>
<path d="M31.25 68.75H21.875C21.0113 68.75 20.3125 69.4488 20.3125 70.3125V79.6875C20.3125 80.5513 21.0113 81.25 21.875 81.25H31.25C32.1138 81.25 32.8125 80.5513 32.8125 79.6875V70.3125C32.8125 69.4488 32.1138 68.75 31.25 68.75ZM29.6875 78.125H23.4375V71.875H29.6875V78.125Z" fill="#002653"/>
<path d="M28.125 45.3125C28.125 46.1762 28.8237 46.875 29.6875 46.875H31.25V50H20.3125C19.4488 50 18.75 50.6988 18.75 51.5625V57.8125C18.75 58.6763 19.4488 59.375 20.3125 59.375C21.1762 59.375 21.875 58.6763 21.875 57.8125V53.125H32.8125C33.6763 53.125 34.375 52.4263 34.375 51.5625V46.875H39.0625C39.9263 46.875 40.625 46.1762 40.625 45.3125C40.625 44.4488 39.9263 43.75 39.0625 43.75H29.6875C28.8237 43.75 28.125 44.4488 28.125 45.3125Z" fill="#002653"/>
<path d="M53.125 67.1875V51.5625C53.125 50.6988 52.4263 50 51.5625 50H39.0625C38.1987 50 37.5 50.6988 37.5 51.5625V56.25H26.5625C25.6988 56.25 25 56.9488 25 57.8125C25 58.6763 25.6988 59.375 26.5625 59.375H45.3125C46.1763 59.375 46.875 58.6763 46.875 57.8125C46.875 56.9488 46.1763 56.25 45.3125 56.25H40.625V53.125H50V65.625H45.3125C44.4487 65.625 43.75 66.3237 43.75 67.1875V79.6875C43.75 80.5513 44.4487 81.25 45.3125 81.25C46.1763 81.25 46.875 80.5513 46.875 79.6875V68.75H51.5625C52.4263 68.75 53.125 68.0513 53.125 67.1875Z" fill="#002653"/>
<path d="M43.75 26.5625C43.75 25.6988 43.0512 25 42.1875 25C41.3238 25 40.625 25.6988 40.625 26.5625V35.9375C40.625 36.8013 41.3238 37.5 42.1875 37.5C43.0512 37.5 43.75 36.8013 43.75 35.9375V31.25H56.25V34.375H54.6875C53.8237 34.375 53.125 35.0737 53.125 35.9375V45.3125C53.125 46.1763 53.8237 46.875 54.6875 46.875H62.5V50H57.8125C56.9487 50 56.25 50.6987 56.25 51.5625C56.25 52.4263 56.9487 53.125 57.8125 53.125H64.0625C64.9263 53.125 65.625 52.4263 65.625 51.5625V50H70.3125C71.1763 50 71.875 49.3013 71.875 48.4375V43.75H75V56.25H57.8125C56.9487 56.25 56.25 56.9487 56.25 57.8125V75H53.125V73.4375C53.125 72.5737 52.4263 71.875 51.5625 71.875C50.6987 71.875 50 72.5737 50 73.4375V79.6875C50 80.5513 50.6987 81.25 51.5625 81.25C52.4263 81.25 53.125 80.5513 53.125 79.6875V78.125H57.8125C58.6763 78.125 59.375 77.4263 59.375 76.5625V59.375H76.5625C77.4263 59.375 78.125 58.6763 78.125 57.8125V43.75H79.6875C80.5513 43.75 81.25 43.0513 81.25 42.1875C81.25 41.3237 80.5513 40.625 79.6875 40.625H70.3125C69.4487 40.625 68.75 41.3237 68.75 42.1875V46.875H65.625V45.3125C65.625 44.4487 64.9263 43.75 64.0625 43.75H56.25V37.5H57.8125C58.6763 37.5 59.375 36.8013 59.375 35.9375V29.6875C59.375 28.8238 58.6763 28.125 57.8125 28.125H43.75V26.5625Z" fill="#002653"/>
<path d="M48.4375 46.875C49.3012 46.875 50 46.1763 50 45.3125V35.9375C50 35.0738 49.3012 34.375 48.4375 34.375C47.5738 34.375 46.875 35.0738 46.875 35.9375V43.75H45.3125C44.4488 43.75 43.75 44.4487 43.75 45.3125C43.75 46.1763 44.4488 46.875 45.3125 46.875H48.4375Z" fill="#002653"/>
<path d="M35.9375 31.25H38.2812C39.145 31.25 39.8438 30.5513 39.8438 29.6875C39.8438 28.8237 39.145 28.125 38.2812 28.125H37.5V21.875H53.0275V23.4375C53.0275 24.3012 53.7262 25 54.59 25C55.4537 25 56.1525 24.3012 56.1525 23.4375V20.3125C56.1525 19.4488 55.4537 18.75 54.59 18.75H35.9375C35.0738 18.75 34.375 19.4488 34.375 20.3125V29.6875C34.375 30.5513 35.0738 31.25 35.9375 31.25Z" fill="#002653"/>
</svg>
